%YAML 1.1
%TAG !u! tag:unity3d.com,2011:
--- !u!1 &5530467602356754830
GameObject:
  m_ObjectHideFlags: 0
  m_CorrespondingSourceObject: {fileID: 0}
  m_PrefabInstance: {fileID: 0}
  m_PrefabAsset: {fileID: 0}
  serializedVersion: 6
  m_Component:
  - component: {fileID: 1166616309956118856}
  - component: {fileID: 1533166994816489421}
  - component: {fileID: 3385771836986238930}
  m_Layer: 31
  m_Name: Layer1
  m_TagString: Untagged
  m_Icon: {fileID: 0}
  m_NavMeshLayer: 0
  m_StaticEditorFlags: 0
  m_IsActive: 1
--- !u!4 &1166616309956118856
Transform:
  m_ObjectHideFlags: 0
  m_CorrespondingSourceObject: {fileID: 0}
  m_PrefabInstance: {fileID: 0}
  m_PrefabAsset: {fileID: 0}
  m_GameObject: {fileID: 5530467602356754830}
  m_LocalRotation: {x: -0, y: -0, z: -0, w: 1}
  m_LocalPosition: {x: 0, y: 0, z: 0}
  m_LocalScale: {x: 1, y: 1, z: 1}
  m_Children: []
  m_Father: {fileID: 4161628257949962716}
  m_RootOrder: 0
  m_LocalEulerAnglesHint: {x: 0, y: 0, z: 0}
--- !u!1839735485 &1533166994816489421
Tilemap:
  m_ObjectHideFlags: 0
  m_CorrespondingSourceObject: {fileID: 0}
  m_PrefabInstance: {fileID: 0}
  m_PrefabAsset: {fileID: 0}
  m_GameObject: {fileID: 5530467602356754830}
  m_Enabled: 1
  m_Tiles:
  - first: {x: -2, y: -1, z: 0}
    second:
      serializedVersion: 2
      m_TileIndex: 35
      m_TileSpriteIndex: 35
      m_TileMatrixIndex: 0
      m_TileColorIndex: 19
      m_TileObjectToInstantiateIndex: 65535
      m_AllTileFlags: 1073741825
  - first: {x: -1, y: -1, z: 0}
    second:
      serializedVersion: 2
      m_TileIndex: 36
      m_TileSpriteIndex: 36
      m_TileMatrixIndex: 0
      m_TileColorIndex: 19
      m_TileObjectToInstantiateIndex: 65535
      m_AllTileFlags: 1073741825
  - first: {x: 0, y: -1, z: 0}
    second:
      serializedVersion: 2
      m_TileIndex: 37
      m_TileSpriteIndex: 37
      m_TileMatrixIndex: 0
      m_TileColorIndex: 19
      m_TileObjectToInstantiateIndex: 65535
      m_AllTileFlags: 1073741825
  - first: {x: 1, y: -1, z: 0}
    second:
      serializedVersion: 2
      m_TileIndex: 38
      m_TileSpriteIndex: 38
      m_TileMatrixIndex: 0
      m_TileColorIndex: 19
      m_TileObjectToInstantiateIndex: 65535
      m_AllTileFlags: 1073741825
  - first: {x: 2, y: -1, z: 0}
    second:
      serializedVersion: 2
      m_TileIndex: 39
      m_TileSpriteIndex: 39
      m_TileMatrixIndex: 0
      m_TileColorIndex: 19
      m_TileObjectToInstantiateIndex: 65535
      m_AllTileFlags: 1073741825
  - first: {x: 3, y: -1, z: 0}
    second:
      serializedVersion: 2
      m_TileIndex: 40
      m_TileSpriteIndex: 40
      m_TileMatrixIndex: 0
      m_TileColorIndex: 19
      m_TileObjectToInstantiateIndex: 65535
      m_AllTileFlags: 1073741825
  - first: {x: 4, y: -1, z: 0}
    second:
      serializedVersion: 2
      m_TileIndex: 41
      m_TileSpriteIndex: 41
      m_TileMatrixIndex: 0
      m_TileColorIndex: 19
      m_TileObjectToInstantiateIndex: 65535
      m_AllTileFlags: 1073741825
  - first: {x: -2, y: 0, z: 0}
    second:
      serializedVersion: 2
      m_TileIndex: 28
      m_TileSpriteIndex: 28
      m_TileMatrixIndex: 0
      m_TileColorIndex: 19
      m_TileObjectToInstantiateIndex: 65535
      m_AllTileFlags: 1073741825
  - first: {x: -1, y: 0, z: 0}
    second:
      serializedVersion: 2
      m_TileIndex: 29
      m_TileSpriteIndex: 29
      m_TileMatrixIndex: 0
      m_TileColorIndex: 19
      m_TileObjectToInstantiateIndex: 65535
      m_AllTileFlags: 1073741825
  - first: {x: 0, y: 0, z: 0}
    second:
      serializedVersion: 2
      m_TileIndex: 30
      m_TileSpriteIndex: 30
      m_TileMatrixIndex: 0
      m_TileColorIndex: 19
      m_TileObjectToInstantiateIndex: 65535
      m_AllTileFlags: 1073741825
  - first: {x: 1, y: 0, z: 0}
    second:
      serializedVersion: 2
      m_TileIndex: 31
      m_TileSpriteIndex: 31
      m_TileMatrixIndex: 0
      m_TileColorIndex: 19
      m_TileObjectToInstantiateIndex: 65535
      m_AllTileFlags: 1073741825
  - first: {x: 2, y: 0, z: 0}
    second:
      serializedVersion: 2
      m_TileIndex: 32
      m_TileSpriteIndex: 32
      m_TileMatrixIndex: 0
      m_TileColorIndex: 19
      m_TileObjectToInstantiateIndex: 65535
      m_AllTileFlags: 1073741825
  - first: {x: 3, y: 0, z: 0}
    second:
      serializedVersion: 2
      m_TileIndex: 33
      m_TileSpriteIndex: 33
      m_TileMatrixIndex: 0
      m_TileColorIndex: 19
      m_TileObjectToInstantiateIndex: 65535
      m_AllTileFlags: 1073741825
  - first: {x: 4, y: 0, z: 0}
    second:
      serializedVersion: 2
      m_TileIndex: 34
      m_TileSpriteIndex: 34
      m_TileMatrixIndex: 0
      m_TileColorIndex: 19
      m_TileObjectToInstantiateIndex: 65535
      m_AllTileFlags: 1073741825
  - first: {x: -2, y: 1, z: 0}
    second:
      serializedVersion: 2
      m_TileIndex: 2
      m_TileSpriteIndex: 2
      m_TileMatrixIndex: 0
      m_TileColorIndex: 19
      m_TileObjectToInstantiateIndex: 65535
      m_AllTileFlags: 1073741825
  - first: {x: -1, y: 1, z: 0}
    second:
      serializedVersion: 2
      m_TileIndex: 1
      m_TileSpriteIndex: 1
      m_TileMatrixIndex: 0
      m_TileColorIndex: 19
      m_TileObjectToInstantiateIndex: 65535
      m_AllTileFlags: 1073741825
  - first: {x: 0, y: 1, z: 0}
    second:
      serializedVersion: 2
      m_TileIndex: 0
      m_TileSpriteIndex: 0
      m_TileMatrixIndex: 0
      m_TileColorIndex: 19
      m_TileObjectToInstantiateIndex: 65535
      m_AllTileFlags: 1073741825
  - first: {x: 1, y: 1, z: 0}
    second:
      serializedVersion: 2
      m_TileIndex: 24
      m_TileSpriteIndex: 24
      m_TileMatrixIndex: 0
      m_TileColorIndex: 19
      m_TileObjectToInstantiateIndex: 65535
      m_AllTileFlags: 1073741825
  - first: {x: 2, y: 1, z: 0}
    second:
      serializedVersion: 2
      m_TileIndex: 25
      m_TileSpriteIndex: 25
      m_TileMatrixIndex: 0
      m_TileColorIndex: 19
      m_TileObjectToInstantiateIndex: 65535
      m_AllTileFlags: 1073741825
  - first: {x: 3, y: 1, z: 0}
    second:
      serializedVersion: 2
      m_TileIndex: 26
      m_TileSpriteIndex: 26
      m_TileMatrixIndex: 0
      m_TileColorIndex: 19
      m_TileObjectToInstantiateIndex: 65535
      m_AllTileFlags: 1073741825
  - first: {x: 4, y: 1, z: 0}
    second:
      serializedVersion: 2
      m_TileIndex: 27
      m_TileSpriteIndex: 27
      m_TileMatrixIndex: 0
      m_TileColorIndex: 19
      m_TileObjectToInstantiateIndex: 65535
      m_AllTileFlags: 1073741825
  - first: {x: -2, y: 2, z: 0}
    second:
      serializedVersion: 2
      m_TileIndex: 8
      m_TileSpriteIndex: 8
      m_TileMatrixIndex: 0
      m_TileColorIndex: 19
      m_TileObjectToInstantiateIndex: 65535
      m_AllTileFlags: 1073741825
  - first: {x: -1, y: 2, z: 0}
    second:
      serializedVersion: 2
      m_TileIndex: 21
      m_TileSpriteIndex: 21
      m_TileMatrixIndex: 0
      m_TileColorIndex: 19
      m_TileObjectToInstantiateIndex: 65535
      m_AllTileFlags: 1073741825
  - first: {x: 0, y: 2, z: 0}
    second:
      serializedVersion: 2
      m_TileIndex: 4
      m_TileSpriteIndex: 4
      m_TileMatrixIndex: 0
      m_TileColorIndex: 19
      m_TileObjectToInstantiateIndex: 65535
      m_AllTileFlags: 1073741825
  - first: {x: 1, y: 2, z: 0}
    second:
      serializedVersion: 2
      m_TileIndex: 5
      m_TileSpriteIndex: 5
      m_TileMatrixIndex: 0
      m_TileColorIndex: 19
      m_TileObjectToInstantiateIndex: 65535
      m_AllTileFlags: 1073741825
  - first: {x: 2, y: 2, z: 0}
    second:
      serializedVersion: 2
      m_TileIndex: 6
      m_TileSpriteIndex: 6
      m_TileMatrixIndex: 0
      m_TileColorIndex: 19
      m_TileObjectToInstantiateIndex: 65535
      m_AllTileFlags: 1073741825
  - first: {x: 3, y: 2, z: 0}
    second:
      serializedVersion: 2
      m_TileIndex: 7
      m_TileSpriteIndex: 7
      m_TileMatrixIndex: 0
      m_TileColorIndex: 19
      m_TileObjectToInstantiateIndex: 65535
      m_AllTileFlags: 1073741825
  - first: {x: 4, y: 2, z: 0}
    second:
      serializedVersion: 2
      m_TileIndex: 3
      m_TileSpriteIndex: 3
      m_TileMatrixIndex: 0
      m_TileColorIndex: 19
      m_TileObjectToInstantiateIndex: 65535
      m_AllTileFlags: 1073741825
  - first: {x: -2, y: 3, z: 0}
    second:
      serializedVersion: 2
      m_TileIndex: 11
      m_TileSpriteIndex: 11
      m_TileMatrixIndex: 0
      m_TileColorIndex: 19
      m_TileObjectToInstantiateIndex: 65535
      m_AllTileFlags: 1073741825
  - first: {x: -1, y: 3, z: 0}
    second:
      serializedVersion: 2
      m_TileIndex: 18
      m_TileSpriteIndex: 18
      m_TileMatrixIndex: 0
      m_TileColorIndex: 19
      m_TileObjectToInstantiateIndex: 65535
      m_AllTileFlags: 1073741825
  - first: {x: 0, y: 3, z: 0}
    second:
      serializedVersion: 2
      m_TileIndex: 22
      m_TileSpriteIndex: 22
      m_TileMatrixIndex: 0
      m_TileColorIndex: 19
      m_TileObjectToInstantiateIndex: 65535
      m_AllTileFlags: 1073741825
  - first: {x: 1, y: 3, z: 0}
    second:
      serializedVersion: 2
      m_TileIndex: 16
      m_TileSpriteIndex: 16
      m_TileMatrixIndex: 0
      m_TileColorIndex: 19
      m_TileObjectToInstantiateIndex: 65535
      m_AllTileFlags: 1073741825
  - first: {x: 2, y: 3, z: 0}
    second:
      serializedVersion: 2
      m_TileIndex: 12
      m_TileSpriteIndex: 12
      m_TileMatrixIndex: 0
      m_TileColorIndex: 19
      m_TileObjectToInstantiateIndex: 65535
      m_AllTileFlags: 1073741825
  - first: {x: 3, y: 3, z: 0}
    second:
      serializedVersion: 2
      m_TileIndex: 17
      m_TileSpriteIndex: 17
      m_TileMatrixIndex: 0
      m_TileColorIndex: 19
      m_TileObjectToInstantiateIndex: 65535
      m_AllTileFlags: 1073741825
  - first: {x: 4, y: 3, z: 0}
    second:
      serializedVersion: 2
      m_TileIndex: 10
      m_TileSpriteIndex: 10
      m_TileMatrixIndex: 0
      m_TileColorIndex: 19
      m_TileObjectToInstantiateIndex: 65535
      m_AllTileFlags: 1073741825
  - first: {x: -2, y: 4, z: 0}
    second:
      serializedVersion: 2
      m_TileIndex: 9
      m_TileSpriteIndex: 9
      m_TileMatrixIndex: 0
      m_TileColorIndex: 19
      m_TileObjectToInstantiateIndex: 65535
      m_AllTileFlags: 1073741825
  - first: {x: -1, y: 4, z: 0}
    second:
      serializedVersion: 2
      m_TileIndex: 23
      m_TileSpriteIndex: 23
      m_TileMatrixIndex: 0
      m_TileColorIndex: 19
      m_TileObjectToInstantiateIndex: 65535
      m_AllTileFlags: 1073741825
  - first: {x: 0, y: 4, z: 0}
    second:
      serializedVersion: 2
      m_TileIndex: 20
      m_TileSpriteIndex: 20
      m_TileMatrixIndex: 0
      m_TileColorIndex: 19
      m_TileObjectToInstantiateIndex: 65535
      m_AllTileFlags: 1073741825
  - first: {x: 1, y: 4, z: 0}
    second:
      serializedVersion: 2
      m_TileIndex: 13
      m_TileSpriteIndex: 13
      m_TileMatrixIndex: 0
      m_TileColorIndex: 19
      m_TileObjectToInstantiateIndex: 65535
      m_AllTileFlags: 1073741825
  - first: {x: 2, y: 4, z: 0}
    second:
      serializedVersion: 2
      m_TileIndex: 14
      m_TileSpriteIndex: 14
      m_TileMatrixIndex: 0
      m_TileColorIndex: 19
      m_TileObjectToInstantiateIndex: 65535
      m_AllTileFlags: 1073741825
  - first: {x: 3, y: 4, z: 0}
    second:
      serializedVersion: 2
      m_TileIndex: 15
      m_TileSpriteIndex: 15
      m_TileMatrixIndex: 0
      m_TileColorIndex: 19
      m_TileObjectToInstantiateIndex: 65535
      m_AllTileFlags: 1073741825
  - first: {x: 4, y: 4, z: 0}
    second:
      serializedVersion: 2
      m_TileIndex: 19
      m_TileSpriteIndex: 19
      m_TileMatrixIndex: 0
      m_TileColorIndex: 19
      m_TileObjectToInstantiateIndex: 65535
      m_AllTileFlags: 1073741825
  m_AnimatedTiles: {}
  m_TileAssetArray:
  - m_RefCount: 1
    m_Data: {fileID: 11400000, guid: 37cd4e75279a39a4ba2a5e42e384af6e, type: 2}
  - m_RefCount: 1
    m_Data: {fileID: 11400000, guid: 1e17127def529384d947578f15a3d67f, type: 2}
  - m_RefCount: 1
    m_Data: {fileID: 11400000, guid: ea669dadaf6f85546a38e31552f3c007, type: 2}
  - m_RefCount: 1
    m_Data: {fileID: 11400000, guid: ad8b4035729a509408bb71f520ea6c5d, type: 2}
  - m_RefCount: 1
    m_Data: {fileID: 11400000, guid: 5972ed408a6c298459378684325562ee, type: 2}
  - m_RefCount: 1
    m_Data: {fileID: 11400000, guid: 2eb14c756685818439fc879d7b635869, type: 2}
  - m_RefCount: 1
    m_Data: {fileID: 11400000, guid: 349785ea176146143a663cf270473823, type: 2}
  - m_RefCount: 1
    m_Data: {fileID: 11400000, guid: 25aba443fd5fdc440bc5bb82133ef709, type: 2}
  - m_RefCount: 1
    m_Data: {fileID: 11400000, guid: 915e8587efaddc04c9d4803351fe7e8c, type: 2}
  - m_RefCount: 1
    m_Data: {fileID: 11400000, guid: 6ba18ec913a5f954eb16ab236cdd7f82, type: 2}
  - m_RefCount: 1
    m_Data: {fileID: 11400000, guid: 7f1d78f6861144546a65c2779091c4ba, type: 2}
  - m_RefCount: 1
    m_Data: {fileID: 11400000, guid: f38cce2f8497a3e429897d936f0b3894, type: 2}
  - m_RefCount: 1
    m_Data: {fileID: 11400000, guid: 6c38dda792e2e6d4d838f598e853bef1, type: 2}
  - m_RefCount: 1
    m_Data: {fileID: 11400000, guid: 0fa4054dc67262b498d6c9aa3b09eec6, type: 2}
  - m_RefCount: 1
    m_Data: {fileID: 11400000, guid: 08eaa1c1096e54045b399868c2501368, type: 2}
  - m_RefCount: 1
    m_Data: {fileID: 11400000, guid: b9c7da940229bfa45a3084639b9d553c, type: 2}
  - m_RefCount: 1
    m_Data: {fileID: 11400000, guid: 1e2a25dd6b4494c4f89579ae20ee0930, type: 2}
  - m_RefCount: 1
    m_Data: {fileID: 11400000, guid: f885226a3eacf4f4d92cdfee5574c4dd, type: 2}
  - m_RefCount: 1
    m_Data: {fileID: 11400000, guid: a2c4030cd3829984a800223c0d252362, type: 2}
  - m_RefCount: 1
    m_Data: {fileID: 11400000, guid: 66e683995138ecc4293d6c1e9ef7b162, type: 2}
  - m_RefCount: 1
    m_Data: {fileID: 11400000, guid: bed17dfdb06b4ee4cbb2bb8b74841464, type: 2}
  - m_RefCount: 1
    m_Data: {fileID: 11400000, guid: 7ad5451b658462c488ac2851db962db3, type: 2}
  - m_RefCount: 1
    m_Data: {fileID: 11400000, guid: e8e8e97e5cf22e043a1a7df26f3b41d3, type: 2}
  - m_RefCount: 1
    m_Data: {fileID: 11400000, guid: 791a5439dd2ad28448d6ee29af301335, type: 2}
  - m_RefCount: 1
    m_Data: {fileID: 11400000, guid: 6e878c1e096a44641b06c9d7484c4cd4, type: 2}
  - m_RefCount: 1
    m_Data: {fileID: 11400000, guid: 30d94c3f4b7ce7e4e8101a622f4cdf1e, type: 2}
  - m_RefCount: 1
    m_Data: {fileID: 11400000, guid: fbc4825c736a0dc46ba2009c862130e5, type: 2}
  - m_RefCount: 1
    m_Data: {fileID: 11400000, guid: 133da50e353ddb543beaae8bc076706b, type: 2}
  - m_RefCount: 1
    m_Data: {fileID: 11400000, guid: 69d2d2baa5e7b8e4ab0c0ea67068f3d5, type: 2}
  - m_RefCount: 1
    m_Data: {fileID: 11400000, guid: 8b483eb015fece74ba39f64204ae1cf4, type: 2}
  - m_RefCount: 1
    m_Data: {fileID: 11400000, guid: 5ba7a982b0799594f8eae3731bd6525b, type: 2}
  - m_RefCount: 1
    m_Data: {fileID: 11400000, guid: 022da75097922a2438add8683551dede, type: 2}
  - m_RefCount: 1
    m_Data: {fileID: 11400000, guid: 76f0928cf8fe70a4bba30051386fd5d6, type: 2}
  - m_RefCount: 1
    m_Data: {fileID: 11400000, guid: 1036441ddabad2e44be1f0959e73c90d, type: 2}
  - m_RefCount: 1
    m_Data: {fileID: 11400000, guid: 0051b1067ee162c46969f39eebef06d0, type: 2}
  - m_RefCount: 1
    m_Data: {fileID: 11400000, guid: cde4d750a00343441af06b86c5003426, type: 2}
  - m_RefCount: 1
    m_Data: {fileID: 11400000, guid: e437b276454e6a946835b235ca519e58, type: 2}
  - m_RefCount: 1
    m_Data: {fileID: 11400000, guid: 1111c066e53aa4f43b45bc7288aae219, type: 2}
  - m_RefCount: 1
    m_Data: {fileID: 11400000, guid: 4e77beab29977fb45a74e94405c0b408, type: 2}
  - m_RefCount: 1
    m_Data: {fileID: 11400000, guid: fac4d2e5df597e046ba41789b0545355, type: 2}
  - m_RefCount: 1
    m_Data: {fileID: 11400000, guid: b9b11073460ae694d9b3643fcad915e1, type: 2}
  - m_RefCount: 1
    m_Data: {fileID: 11400000, guid: 87ca6921d27b3cc4589c52d73cd6d43a, type: 2}
  m_TileSpriteArray:
  - m_RefCount: 1
    m_Data: {fileID: -910482138519110279, guid: 9ed06ee67fdff3640bf01d30be4ac97f,
      type: 3}
  - m_RefCount: 1
    m_Data: {fileID: 2316357206875358949, guid: 9ed06ee67fdff3640bf01d30be4ac97f,
      type: 3}
  - m_RefCount: 1
    m_Data: {fileID: 2871395111367751503, guid: 9ed06ee67fdff3640bf01d30be4ac97f,
      type: 3}
  - m_RefCount: 1
    m_Data: {fileID: 1360713401830628336, guid: 9ed06ee67fdff3640bf01d30be4ac97f,
      type: 3}
  - m_RefCount: 1
    m_Data: {fileID: -2101762369135456033, guid: 9ed06ee67fdff3640bf01d30be4ac97f,
      type: 3}
  - m_RefCount: 1
    m_Data: {fileID: -7936862391723328433, guid: 9ed06ee67fdff3640bf01d30be4ac97f,
      type: 3}
  - m_RefCount: 1
    m_Data: {fileID: 4947887005920381161, guid: 9ed06ee67fdff3640bf01d30be4ac97f,
      type: 3}
  - m_RefCount: 1
    m_Data: {fileID: -4710808330650210275, guid: 9ed06ee67fdff3640bf01d30be4ac97f,
      type: 3}
  - m_RefCount: 1
    m_Data: {fileID: 1552428040638598053, guid: 9ed06ee67fdff3640bf01d30be4ac97f,
      type: 3}
  - m_RefCount: 1
    m_Data: {fileID: -6017082573795073599, guid: 9ed06ee67fdff3640bf01d30be4ac97f,
      type: 3}
  - m_RefCount: 1
    m_Data: {fileID: 8834388123766537298, guid: 9ed06ee67fdff3640bf01d30be4ac97f,
      type: 3}
  - m_RefCount: 1
    m_Data: {fileID: -3435906079950004741, guid: 9ed06ee67fdff3640bf01d30be4ac97f,
      type: 3}
  - m_RefCount: 1
    m_Data: {fileID: 3047522627386203893, guid: 9ed06ee67fdff3640bf01d30be4ac97f,
      type: 3}
  - m_RefCount: 1
    m_Data: {fileID: -1561892692382832600, guid: 9ed06ee67fdff3640bf01d30be4ac97f,
      type: 3}
  - m_RefCount: 1
    m_Data: {fileID: 6959032485429904519, guid: 9ed06ee67fdff3640bf01d30be4ac97f,
      type: 3}
  - m_RefCount: 1
    m_Data: {fileID: -2673216357998304683, guid: 9ed06ee67fdff3640bf01d30be4ac97f,
      type: 3}
  - m_RefCount: 1
    m_Data: {fileID: -8594709962622843355, guid: 9ed06ee67fdff3640bf01d30be4ac97f,
      type: 3}
  - m_RefCount: 1
    m_Data: {fileID: 8232217465308819863, guid: 9ed06ee67fdff3640bf01d30be4ac97f,
      type: 3}
  - m_RefCount: 1
    m_Data: {fileID: 3081404270637097054, guid: 9ed06ee67fdff3640bf01d30be4ac97f,
      type: 3}
  - m_RefCount: 1
    m_Data: {fileID: 8523227616707523864, guid: 9ed06ee67fdff3640bf01d30be4ac97f,
      type: 3}
  - m_RefCount: 1
    m_Data: {fileID: -8073918732455707219, guid: 9ed06ee67fdff3640bf01d30be4ac97f,
      type: 3}
  - m_RefCount: 1
    m_Data: {fileID: 5718586926431759408, guid: 9ed06ee67fdff3640bf01d30be4ac97f,
      type: 3}
  - m_RefCount: 1
    m_Data: {fileID: -3395788938796671144, guid: 9ed06ee67fdff3640bf01d30be4ac97f,
      type: 3}
  - m_RefCount: 1
    m_Data: {fileID: 1209243578608964486, guid: 9ed06ee67fdff3640bf01d30be4ac97f,
      type: 3}
  - m_RefCount: 1
    m_Data: {fileID: -9028690855402878847, guid: 9ed06ee67fdff3640bf01d30be4ac97f,
      type: 3}
  - m_RefCount: 1
    m_Data: {fileID: 7375736198100615226, guid: 9ed06ee67fdff3640bf01d30be4ac97f,
      type: 3}
  - m_RefCount: 1
    m_Data: {fileID: -950085579337809446, guid: 9ed06ee67fdff3640bf01d30be4ac97f,
      type: 3}
  - m_RefCount: 1
    m_Data: {fileID: 3129819380818052160, guid: 9ed06ee67fdff3640bf01d30be4ac97f,
      type: 3}
  - m_RefCount: 1
    m_Data: {fileID: 5995482814332988840, guid: 9ed06ee67fdff3640bf01d30be4ac97f,
      type: 3}
  - m_RefCount: 1
    m_Data: {fileID: -4671088225411011159, guid: 9ed06ee67fdff3640bf01d30be4ac97f,
      type: 3}
  - m_RefCount: 1
    m_Data: {fileID: -6892127267353946134, guid: 9ed06ee67fdff3640bf01d30be4ac97f,
      type: 3}
  - m_RefCount: 1
    m_Data: {fileID: -6237787820895156108, guid: 9ed06ee67fdff3640bf01d30be4ac97f,
      type: 3}
  - m_RefCount: 1
    m_Data: {fileID: 1524871015564126774, guid: 9ed06ee67fdff3640bf01d30be4ac97f,
      type: 3}
  - m_RefCount: 1
    m_Data: {fileID: 871475055411932182, guid: 9ed06ee67fdff3640bf01d30be4ac97f, type: 3}
  - m_RefCount: 1
    m_Data: {fileID: 6703528332976618421, guid: 9ed06ee67fdff3640bf01d30be4ac97f,
      type: 3}
  - m_RefCount: 1
    m_Data: {fileID: -3297851544335607767, guid: 9ed06ee67fdff3640bf01d30be4ac97f,
      type: 3}
  - m_RefCount: 1
    m_Data: {fileID: 7484960119054002501, guid: 9ed06ee67fdff3640bf01d30be4ac97f,
      type: 3}
  - m_RefCount: 1
    m_Data: {fileID: 848620475825743313, guid: 9ed06ee67fdff3640bf01d30be4ac97f, type: 3}
  - m_RefCount: 1
    m_Data: {fileID: -1666533562241055539, guid: 9ed06ee67fdff3640bf01d30be4ac97f,
      type: 3}
  - m_RefCount: 1
    m_Data: {fileID: 5312785363374752846, guid: 9ed06ee67fdff3640bf01d30be4ac97f,
      type: 3}
  - m_RefCount: 1
    m_Data: {fileID: -8080434327358934505, guid: 9ed06ee67fdff3640bf01d30be4ac97f,
      type: 3}
  - m_RefCount: 1
    m_Data: {fileID: -152056269509890906, guid: 9ed06ee67fdff3640bf01d30be4ac97f,
      type: 3}
  m_TileMatrixArray:
  - m_RefCount: 42
    m_Data:
      e00: 1
      e01: 0
      e02: 0
      e03: 0
      e10: 0
      e11: 1
      e12: 0
      e13: 0
      e20: 0
      e21: 0
      e22: 1
      e23: 0
      e30: 0
      e31: 0
      e32: 0
      e33: 1
  m_TileColorArray:
  - m_RefCount: 0
    m_Data: {r: 0.000000001495831, g: 0.000000001495831, b: 0.000000001495831, a: 0.000000001495831}
  - m_RefCount: 0
    m_Data: {r: 0.0000000010372005, g: 0.0000000010372005, b: 0.0000000010372005,
      a: 0.0000000010372005}
  - m_RefCount: 0
    m_Data: {r: 0.0000000014981509, g: 0.0000000014981509, b: 0.0000000014981509,
      a: 0.0000000014981509}
  - m_RefCount: 0
    m_Data: {r: 0.0000000014983108, g: 0.0000000014983108, b: 0.0000000014983108,
      a: 0.0000000014983108}
  - m_RefCount: 0
    m_Data: {r: 0.0000000014979911, g: 0.0000000014979911, b: 0.0000000014979911,
      a: 0.0000000014979911}
  - m_RefCount: 0
    m_Data: {r: 0.0000000014995223, g: 0.0000000014995223, b: 0.0000000014995223,
      a: 0.0000000014995223}
  - m_RefCount: 0
    m_Data: {r: 0.0000000014693242, g: 0.0000000014693242, b: 0.0000000014693242,
      a: 0.0000000014693242}
  - m_RefCount: 0
    m_Data: {r: 0.0000000015003643, g: 0.0000000015003643, b: 0.0000000015003643,
      a: 0.0000000015003643}
  - m_RefCount: 0
    m_Data: {r: 9.751631e-10, g: 9.751631e-10, b: 9.751631e-10, a: 9.751631e-10}
  - m_RefCount: 0
    m_Data: {r: 0.0000000013804815, g: 0.0000000013804815, b: 0.0000000013804815,
      a: 0.0000000013804815}
  - m_RefCount: 0
    m_Data: {r: 0.0000000012247057, g: 0.0000000012247057, b: 0.0000000012247057,
      a: 0.0000000012247057}
  - m_RefCount: 0
    m_Data: {r: 0.0000000010057377, g: 0.0000000010057377, b: 0.0000000010057377,
      a: 0.0000000010057377}
  - m_RefCount: 0
    m_Data: {r: 0.0000000014686314, g: 0.0000000014686314, b: 0.0000000014686314,
      a: 0.0000000014686314}
  - m_RefCount: 0
    m_Data: {r: 0.0000000010058443, g: 0.0000000010058443, b: 0.0000000010058443,
      a: 0.0000000010058443}
  - m_RefCount: 0
    m_Data: {r: 0.0000000014970318, g: 0.0000000014970318, b: 0.0000000014970318,
      a: 0.0000000014970318}
  - m_RefCount: 0
    m_Data: {r: 0.0000000014988011, g: 0.0000000014988011, b: 0.0000000014988011,
      a: 0.0000000014988011}
  - m_RefCount: 0
    m_Data: {r: 0.0000000014978845, g: 0.0000000014978845, b: 0.0000000014978845,
      a: 0.0000000014978845}
  - m_RefCount: 0
    m_Data: {r: 0.0000000014952128, g: 0.0000000014952128, b: 0.0000000014952128,
      a: 0.0000000014952128}
  - m_RefCount: 0
    m_Data: {r: 0.0000000013739481, g: 0.0000000013739481, b: 0.0000000013739481,
      a: 0.0000000013739481}
  - m_RefCount: 42
    m_Data: {r: 1, g: 1, b: 1, a: 1}
  m_TileObjectToInstantiateArray: []
  m_AnimationFrameRate: 1
  m_Color: {r: 1, g: 1, b: 1, a: 1}
  m_Origin: {x: -4, y: -3, z: 0}
  m_Size: {x: 9, y: 14, z: 1}
  m_TileAnchor: {x: 0.5, y: 0.5, z: 0}
  m_TileOrientation: 0
  m_TileOrientationMatrix:
    e00: 1
    e01: 0
    e02: 0
    e03: 0
    e10: 0
    e11: 1
    e12: 0
    e13: 0
    e20: 0
    e21: 0
    e22: 1
    e23: 0
    e30: 0
    e31: 0
    e32: 0
    e33: 1
--- !u!483693784 &3385771836986238930
TilemapRenderer:
  m_ObjectHideFlags: 0
  m_CorrespondingSourceObject: {fileID: 0}
  m_PrefabInstance: {fileID: 0}
  m_PrefabAsset: {fileID: 0}
  m_GameObject: {fileID: 5530467602356754830}
  m_Enabled: 0
  m_CastShadows: 0
  m_ReceiveShadows: 0
  m_DynamicOccludee: 0
  m_MotionVectors: 1
  m_LightProbeUsage: 0
  m_ReflectionProbeUsage: 0
  m_RayTracingMode: 0
  m_RenderingLayerMask: 1
  m_RendererPriority: 0
  m_Materials:
  - {fileID: 10754, guid: 0000000000000000f000000000000000, type: 0}
  m_StaticBatchInfo:
    firstSubMesh: 0
    subMeshCount: 0
  m_StaticBatchRoot: {fileID: 0}
  m_ProbeAnchor: {fileID: 0}
  m_LightProbeVolumeOverride: {fileID: 0}
  m_ScaleInLightmap: 1
  m_ReceiveGI: 1
  m_PreserveUVs: 0
  m_IgnoreNormalsForChartDetection: 0
  m_ImportantGI: 0
  m_StitchLightmapSeams: 1
  m_SelectedEditorRenderState: 0
  m_MinimumChartSize: 4
  m_AutoUVMaxDistance: 0.5
  m_AutoUVMaxAngle: 89
  m_LightmapParameters: {fileID: 0}
  m_SortingLayerID: 0
  m_SortingLayer: 0
  m_SortingOrder: 0
  m_ChunkSize: {x: 32, y: 32, z: 32}
  m_ChunkCullingBounds: {x: 0, y: 0, z: 0}
  m_MaxChunkCount: 16
  m_MaxFrameAge: 16
  m_SortOrder: 0
  m_Mode: 0
  m_DetectChunkCullingBounds: 0
  m_MaskInteraction: 0
--- !u!1 &7457709307253233131
GameObject:
  m_ObjectHideFlags: 0
  m_CorrespondingSourceObject: {fileID: 0}
  m_PrefabInstance: {fileID: 0}
  m_PrefabAsset: {fileID: 0}
  serializedVersion: 6
  m_Component:
  - component: {fileID: 4161628257949962716}
  - component: {fileID: 7921166847052261468}
  m_Layer: 31
  m_Name: CavePallet
  m_TagString: Untagged
  m_Icon: {fileID: 0}
  m_NavMeshLayer: 0
  m_StaticEditorFlags: 0
  m_IsActive: 1
--- !u!4 &4161628257949962716
Transform:
  m_ObjectHideFlags: 0
  m_CorrespondingSourceObject: {fileID: 0}
  m_PrefabInstance: {fileID: 0}
  m_PrefabAsset: {fileID: 0}
  m_GameObject: {fileID: 7457709307253233131}
  m_LocalRotation: {x: 0, y: 0, z: 0, w: 1}
  m_LocalPosition: {x: 0, y: 0, z: 0}
  m_LocalScale: {x: 1, y: 1, z: 1}
  m_Children:
  - {fileID: 1166616309956118856}
  m_Father: {fileID: 0}
  m_RootOrder: 0
  m_LocalEulerAnglesHint: {x: 0, y: 0, z: 0}
--- !u!156049354 &7921166847052261468
Grid:
  m_ObjectHideFlags: 0
  m_CorrespondingSourceObject: {fileID: 0}
  m_PrefabInstance: {fileID: 0}
  m_PrefabAsset: {fileID: 0}
  m_GameObject: {fileID: 7457709307253233131}
  m_Enabled: 1
  m_CellSize: {x: 1, y: 1, z: 0}
  m_CellGap: {x: 0, y: 0, z: 0}
  m_CellLayout: 0
  m_CellSwizzle: 0
--- !u!114 &-3151507650391333768
MonoBehaviour:
  m_ObjectHideFlags: 0
  m_CorrespondingSourceObject: {fileID: 0}
  m_PrefabInstance: {fileID: 0}
  m_PrefabAsset: {fileID: 0}
  m_GameObject: {fileID: 0}
  m_Enabled: 1
  m_EditorHideFlags: 0
  m_Script: {fileID: 12395, guid: 0000000000000000e000000000000000, type: 0}
  m_Name: Palette Settings
  m_EditorClassIdentifier: 
  cellSizing: 0
